Simon Task - Data exploration
…
To be continued (for homework)

The analysis above is very preliminary. We could do many more things (which we should pre-register or be explicit that they are exploratory). For example, the responses made by students enrolled in the different classes could differ. In the dataframe, there is a column class, which we could use to split the data into two groups to compare them (we already did this once when we described the sample).

For example:

d %>% filter(class == "Experimental Psych Lab") # filters the students only enrolled in Experimental Psych Lab
## # A tibble: 4,391 x 18
##    submission_id    RT condition correctness class experiment_id
##            <dbl> <dbl> <chr>     <chr>       <chr>         <dbl>
##  1          7439   991 incongru correct     Expe            52
##  2          7439   341 incongru correct     Expe            52
##  3          7439   393 congruent correct     Expe            52
##  4          7439   344 incongru incorrect   Expe            52
##  5          7439   709 incongru correct     Expe            52
##  6          7439   591 incongru correct     Expe            52
##  7          7439   516 congruent correct     Expe            52
##  8          7439   518 incongru correct     Expe            52
##  9          7439   499 congruent correct     Expe            52
## 10          7439   375 congruent correct     Expe            52
## # ... with 4,381 more rows, and 12 more variables: key_pressed <chr>,
## #   p <chr>, pause <dbl>, q <chr>, target_object <chr>,
## #   target_position <chr>, timeSpent <dbl>, trial_number <dbl>,
## #   trial_type <chr>, mean_RT <dbl>, error_rate <dbl>, outlier <lgl>

d %>% filter(class == "Intro Cogn. Neuro-Psychology") # filters the students only enrolled in Experimental Psych Lab
## # A tibble: 19,314 x 18
##    submission_id    RT condition correctness class experiment_id
##            <dbl> <dbl> <chr>     <chr>       <chr>         <dbl>
##  1          7432   938 incongru correct     Intr            52
##  2          7432   744 incongru correct     Intr            52
##  3          7432   528 incongru correct     Intr            52
##  4          7432   706 incongru correct     Intr            52
##  5          7432   547 congruent correct     Intr            52
##  6          7432   591 incongru correct     Intr            52
##  7          7432   652 incongru correct     Intr            52
##  8          7432   627 incongru correct     Intr            52
##  9          7432   485 incongru incorrect   Intr            52
## 10          7432   515 incongru correct     Intr            52
## # ... with 19,304 more rows, and 12 more variables: key_pressed <chr>,
## #   p <chr>, pause <dbl>, q <chr>, target_object <chr>,
## #   target_position <chr>, timeSpent <dbl>, trial_number <dbl>,
## #   trial_type <chr>, mean_RT <dbl>, error_rate <dbl>, outlier <lgl>

d %>% filter(class == "both") # filters the students enrolled in both classes
## # A tibble: 477 x 18
##    submission_id    RT condition correctness class experiment_id
##            <dbl> <dbl> <chr>     <chr>       <chr>         <dbl>
##  1          7462   641 incongru correct     both             52
##  2          7462   460 congruent correct     both             52
##  3          7462   518 incongru correct     both             52
##  4          7462   586 congruent correct     both             52
##  5          7462   612 incongru correct     both             52
##  6          7462   445 congruent correct     both             52
##  7          7462   445 congruent correct     both             52
##  8          7462   452 congruent correct     both             52
##  9          7462   355 congruent correct     both             52
## 10          7462   478 incongru correct     both             52
## # ... with 467 more rows, and 12 more variables: key_pressed <chr>,
## #   p <chr>, pause <dbl>, q <chr>, target_object <chr>,
## #   target_position <chr>, timeSpent <dbl>, trial_number <dbl>,
## #   trial_type <chr>, mean_RT <dbl>, error_rate <dbl>, outlier <lgl>
…
